{
  "annotation.num_splits": 9,
  "annotation.imgap_input_dir": "/global/projectb/scratch/rowlandk/jaws/metagenome_annotation/splits/",
  "annotation.imgap_input_fasta": "Ga0399893_contigs.fna",
  "annotation.imgap_project_id": "Ga0399893",
  "annotation.imgap_project_type": "metagenome",
  "annotation.additional_threads": 16,
  "annotation.sa_execute": true,
  "annotation.sa_pre_qc_execute": false,
  "annotation.sa_pre_qc_bin": "bin/qc/pre-annotation/fasta_sanity.py",
  "annotation.sa_pre_qc_rename": "yes",
  "annotation.sa_trnascan_se_execute": true,
  "annotation.sa_trnascan_se_bin": "/global/dna/projectdirs/microbial/omics/bin/tRNAscan-SE",
  "annotation.sa_trnascan_pick_and_transform_to_gff_bin": "bin/structural_annotation/trna_pick_and_transform_to_gff.py",
  "annotation.sa_rfam_execute": true,
  "annotation.sa_rfam_cmsearch_bin": "/global/dna/projectdirs/microbial/omics/bin/cmsearch",
  "annotation.sa_rfam_clan_filter_bin": "bin/structural_annotation/rfam_clan_filter.py",
  "annotation.sa_rfam_cm": "/global/dna/projectdirs/microbial/omics/databases/Rfam/13.0/Rfam.cm",
  "annotation.sa_rfam_claninfo_tsv": "/global/dna/projectdirs/microbial/omics/databases/Rfam/13.0/Rfam.claninfo",
  "annotation.sa_rfam_feature_lookup_tsv": "/global/dna/projectdirs/microbial/omics/databases/Rfam/13.0/Rfam_feature_lookup.tsv",
  "annotation.sa_crt_execute": true,
  "annotation.sa_crt_cli_jar": "/global/dna/projectdirs/microbial/omics/bin/CRT-CLI.jar",
  "annotation.sa_crt_transform_bin": "bin/structural_annotation/transform_crt_output.py",
  "annotation.sa_prodigal_execute": true,
  "annotation.sa_prodigal_bin": "/global/dna/projectdirs/microbial/omics/bin/prodigal",
  "annotation.sa_unify_bin": "bin/structural_annotation/unify_gene_ids.py",
  "annotation.sa_genemark_execute": true,
  "annotation.sa_genemark_iso_bin": "/global/dna/projectdirs/microbial/omics/bin/gms2.pl",
  "annotation.sa_genemark_meta_bin": "/global/dna/projectdirs/microbial/omics/bin/gmhmmp2",
  "annotation.sa_genemark_meta_model": "/global/dna/projectdirs/microbial/omics/programs/GeneMark/GeneMarkS-2/v1.07/mgm_11.mod",
  "annotation.sa_gff_merge_bin": "bin/structural_annotation/gff_files_merger.py",
  "annotation.sa_fasta_merge_bin": "bin/structural_annotation/fasta_files_merger.py",
  "annotation.sa_gff_and_fasta_stats_execute": false,
  "annotation.sa_gff_and_fasta_stats_bin": "bin/structural_annotation/gff_and_final_fasta_stats.py",
  "annotation.sa_post_qc_bin": "bin/qc/post-annotation/genome_structural_annotation_sanity.py",
  "annotation.fa_execute": false,
  "annotation.fa_product_names_mapping_dir": "/global/dna/projectdirs/microbial/omics/databases/Product_Name_Mappings/latest",
  "annotation.fa_ko_ec_execute": true,
  "annotation.fa_ko_ec_img_nr_db": "/global/dna/projectdirs/microbial/omics/databases/IMG-NR/20190607/img_nr",
  "annotation.fa_ko_ec_md5_mapping": "/global/dna/projectdirs/microbial/omics/databases/IMG-NR/20190607/md5Hash2Data.txt",
  "annotation.fa_ko_ec_taxon_to_phylo_mapping": "/global/dna/projectdirs/microbial/omics/databases/IMG-NR/20190607/taxonOid2Taxonomy.txt",
  "annotation.fa_lastal_bin": "/global/dna/projectdirs/microbial/omics/bin/lastal",
  "annotation.fa_selector_bin": "bin/functional_annotation/lastal_img_nr_ko_ec_gene_phylo_hit_selector.py",
  "annotation.fa_cath_funfam_execute": true,
  "annotation.fa_cath_funfam_db": "/global/dna/projectdirs/microbial/omics/databases/Cath-FunFam/v4.1.0/funfam.hmm",
  "annotation.fa_pfam_execute": true,
  "annotation.fa_pfam_db": "/global/dna/projectdirs/microbial/omics/databases/Pfam/Pfam-A-LATEST/Pfam-A.hmm",
  "annotation.fa_pfam_claninfo_tsv": "/global/dna/projectdirs/microbial/omics/databases/Pfam/Pfam-A-LATEST/Pfam-A.clans.tsv",
  "annotation.fa_pfam_clan_filter": "bin/functional_annotation/pfam_clan_filter.py",
  "annotation.fa_superfam_excute": true,
  "annotation.fa_superfam_db": "/global/dna/projectdirs/microbial/omics/databases/SuperFamily/v1.75/supfam.hmm",
  "annotation.fa_cog_execute": true,
  "annotation.fa_cog_db": "/global/dna/projectdirs/microbial/omics/databases/COG/HMMs/2003/COG.hmm",
  "annotation.fa_tigrfam_execute": true,
  "annotation.fa_tigrfam_db": "/global/dna/projectdirs/microbial/omics/databases/TIGRFAM/v15.0/TIGRFAM.hmm",
  "annotation.fa_hit_selector_bin": "bin/functional_annotation/hmmsearch_hit_selector.py",
  "annotation.fa_smart_execute": true,
  "annotation.fa_smart_db": "/global/dna/projectdirs/microbial/omics/databases/SMART/01_06_2016/SMART.hmm",
  "annotation.fa_hmmsearch_bin": "/global/common/sw/cray/cnl7/haswell/hmmer/3.1b2/gcc/8.2.0/a2ng2in/bin/hmmsearch",
  "annotation.fa_frag_hits_filter_bin": "bin/functional_annotation/hmmsearch_fragmented_hits_filter.py",
  "annotation.fa_signalp_execute": true,
  "annotation.fa_signalp_bin": "/global/dna/projectdirs/microbial/omics/bin/signalp",
  "annotation.fa_signalp_gram_stain": "GRAM_STAIN",
  "annotation.fa_tmhmm_execute": true,
  "annotation.fa_tmhmm_model": "/global/dna/projectdirs/microbial/omics/programs/tmhmm-2.0c/lib/TMHMM2.0.model",
  "annotation.fa_tmhmm_decode": "/global/dna/projectdirs/microbial/omics/bin/decodeanhmm",
  "annotation.fa_tmhmm_decode_parser": "bin/functional_annotation/decodeanhmm_parser.py",
  "annotation.fa_product_assign_bin": "bin/functional_annotation/assign_product_names_and_create_fa_gff.py"
}

